<svg width="20" height="20" viewBox="0 0 20 20" fill="none" xmlns="http://www.w3.org/2000/svg">
    <path d="M9 16H11V14H9V16ZM10 1.52588e-05C4.48 1.52588e-05 0 4.48002 0 10C0 15.52 4.48 20 10 20C15.52 20 20 15.52 20 10C20 4.48002 15.52 1.52588e-05 10 1.52588e-05ZM10 18C5.59 18 2 14.41 2 10C2 5.59002 5.59 2.00002 10 2.00002C14.41 2.00002 18 5.59002 18 10C18 14.41 14.41 18 10 18ZM10 4.00002C7.79 4.00002 6 5.79002 6 8.00002H8C8 6.90002 8.9 6.00002 10 6.00002C11.1 6.00002 12 6.90002 12 8.00002C12 10 9 9.75002 9 13H11C11 10.75 14 10.5 14 8.00002C14 5.79002 12.21 4.00002 10 4.00002Z" fill="#A0A0A0"/>
</svg>
