<svg width="22" height="21" viewBox="0 0 22 21" fill="none" xmlns="http://www.w3.org/2000/svg">
    <path d="M11 0.400024C5.25598 0.400024 0.599976 4.34002 0.599976 9.20002C0.599976 11.8944 2.03464 14.3028 4.28904 15.9172C4.3466 17.146 4.1562 18.8427 2.46091 19.625C2.45987 19.6255 2.45883 19.6261 2.45779 19.6266C2.38205 19.6554 2.31684 19.7065 2.2708 19.7732C2.22476 19.8399 2.20006 19.919 2.19998 20C2.19998 20.1061 2.24212 20.2079 2.31713 20.2829C2.39215 20.3579 2.49389 20.4 2.59998 20.4C2.60953 20.4 2.61856 20.3985 2.6281 20.3985C2.63018 20.3985 2.63227 20.3985 2.63435 20.3985C4.58157 20.386 6.23459 19.3337 7.37498 18.2219C7.73658 17.8691 8.24067 17.6955 8.73748 17.7891C9.46548 17.9275 10.2224 18 11 18C16.744 18 21.4 14.06 21.4 9.20002C21.4 4.34002 16.744 0.400024 11 0.400024Z" fill="#B7B7B7"/>
</svg>
