<svg width="24" height="24" viewBox="0 0 24 24" fill="none" xmlns="http://www.w3.org/2000/svg">
    <path d="M15.6703 2.4078C14.0124 2.34225 12.3332 2.9418 11.0672 4.2078C9.48726 5.78776 9.2813 7.67865 10.0016 9.47343L3.33753 16.1375C2.08793 17.3871 2.08793 19.4129 3.33753 20.6625C4.58713 21.9121 6.61293 21.9121 7.86253 20.6625L14.5266 13.9984C16.3214 14.7187 18.2123 14.5128 19.7922 12.9328C21.4802 11.2448 21.9815 8.8233 21.3047 6.6953L17.6 10.4L14.4 9.59999L13.6 6.39999L17.3047 2.6953C16.7727 2.5261 16.223 2.42965 15.6703 2.4078ZM5.60003 16.8C6.48403 16.8 7.20003 17.516 7.20003 18.4C7.20003 19.284 6.48403 20 5.60003 20C4.71603 20 4.00003 19.284 4.00003 18.4C4.00003 17.516 4.71603 16.8 5.60003 16.8Z" fill="#999999"/>
</svg>
